October30th
Kamryn Prince

12/20/2020

# FOR EACH OF THE QUESTIONS BELOW, WRITE YOUR WORKING R CODE TO RETURN THE REQUESTED RESULTS
# USE COMMENTS (PREFACED BY THE #) BEFORE THE WORKING CODE TO EXPLAIN WHAT YOU'RE DOING FOR EACH STEP

# 1) The column "for_impeachment" indicates whether the member has publicly called for
# an impeachment inquiry. Filter to return only the ones where the answer is NO.    
# view data, then filter and check impeachment for "NO" 
  
impeach %>% 
  filter(for_impeachment == "NO")
## # A tibble: 26 x 32
##    for_impeachment last_name first_name middle_name party state district
##                                      
##  1 NO              Allred    Colin              D     TX    32      
##  2 NO              Brindisi  Anthony            D     NY    22      
##  3 NO              Bustos    Cheri              D     IL    17      
##  4 NO              Cuellar   Henry              D     TX    28      
##  5 NO              Cunningh… Joe                D     SC    1       
##  6 NO              Davids    Sharice            D     KS    3       
##  7 NO              Gabbard   Tulsi              D     HI    2       
##  8 NO              Golden    Jared              D     ME    2       
##  9 NO              Gonzalez  Vicente            D     TX    15      
## 10 NO              Horn      Kendra             D     OK    5       
## # … with 16 more rows, and 25 more variables: date_exact ,
## #   date_approx_month , date_comb , date_month ,
## #   date_year , margin_flag_2018 , flip_2018 , house_dist ,
## #   keyrace_rating , median_income ,
## #   median_income_compared_to_national , median_age ,
## #   median_age_compared_to_national , pct_nonwhite ,
## #   pct_nonwhite_compared_to_national , pct_bachelors ,
## #   pct_bachelors_compared_to_national , rural_pop_above20pct ,
## #   gdp_above_national , clinton_percent , trump_percent ,
…
impeach %>%
  filter(for_impeachment == "YES",
         date_month == 9,
         date_year == 2019)
## # A tibble: 76 x 32
##    for_impeachment last_name first_name middle_name party state district
##                                      
##  1 YES             Axne      Cynthia            D     IA    3       
##  2 YES             Bass      Karen              D     CA    37      
##  3 YES             Bera      Ami                D     CA    7       
##  4 YES             Bishop    Sanford    D.          D     GA    2       
##  5 YES             Cartwrig… Matt               D     PA    8       
##  6 YES             Case      Ed                 D     HI    1       
##  7 YES             Castor    Kathy              D     FL    14      
##  8 YES             Cisneros  Gilbert            D     CA    39      
##  9 YES             Clyburn   James      E.          D     SC    6       
## 10 YES             Cooper    Jim                D     TN    5       
## # … with 66 more rows, and 25 more variables: date_exact ,
## #   date_approx_month , date_comb , date_month ,
## #   date_year , margin_flag_2018 , flip_2018 , house_dist ,
## #   keyrace_rating , median_income ,
## #   median_income_compared_to_national , median_age ,
## #   median_age_compared_to_national , pct_nonwhite ,
## #   pct_nonwhite_compared_to_national , pct_bachelors ,
## #   pct_bachelors_compared_to_national , rural_pop_above20pct ,
## #   gdp_above_national , clinton_percent , trump_percent ,
## #   obama_percent , romney_percent , p16winningparty ,
## #   p12winningparty 
# 5) Filter for only results where a member is a YES for impeachment and is from a district
# where Clinton won more than 70 percent of the vote in 2016 (found in column "clinton_percent")
# view data, insert for impeachment and clinton's percentage either = to or > than 70%

impeach %>%
filter(for_impeachment == "YES",
      clinton_percent > 70)
## # A tibble: 55 x 32
##    for_impeachment last_name first_name middle_name party state district
##                                      
##  1 YES             Barragan  Nanette            D     CA    44      
##  2 YES             Bass      Karen              D     CA    37      
##  3 YES             Beyer     Donald             D     VA    8       
##  4 YES             Boyle     Brendan            D     PA    2       
##  5 YES             Brown     Anthony            D     MD    4       
##  6 YES             Cardenas  Tony               D     CA    29      
##  7 YES             Clarke    Yvette     D.          D     NY    9       
##  8 YES             Clay      William    Lacy        D     MO    1       
##  9 YES             Cohen     Steve              D     TN    9       
## 10 YES             Cummings  Elijah     E.          D     MD    7       
## # … with 45 more rows, and 25 more variables: date_exact ,
## #   date_approx_month , date_comb , date_month ,
## #   date_year , margin_flag_2018 , flip_2018 , house_dist ,
## #   keyrace_rating , median_income ,
## #   median_income_compared_to_national , median_age ,
## #   median_age_compared_to_national , pct_nonwhite ,
## #   pct_nonwhite_compared_to_national , pct_bachelors ,
## #   pct_bachelors_compared_to_national , rural_pop_above20pct ,
## #   gdp_above_national , clinton_percent , trump_percent ,
## #   obama_percent , romney_percent , p16winningparty ,
## #   p12winningparty 
# 6) Sort the entire dataframe based on the percentage of a district that has a 
# bachelor's degree or higher ("pct_bachelors"), from lowest to highest
# view data, use arrange function for "pct_bachelors" for lowest value first 

impeach%>%
 arrange(pct_bachelors)
## # A tibble: 235 x 32
##    for_impeachment last_name first_name middle_name party state district
##                                      
##  1 YES             Cox       TJ                 D     CA    21      
##  2 YES             Roybal-A… Lucille            D     CA    40      
##  3 YES             Garcia    Sylvia             D     TX    29      
##  4 YES             Veasey    Marc               D     TX    33      
##  5 YES             Costa     Jim                D     CA    16      
##  6 YES             Barragan  Nanette            D     CA    44      
##  7 YES             Serrano   Jose       E.          D     NY    15      
##  8 YES             Vargas    Juan               D     CA    51      
##  9 YES             Gallego   Ruben              D     AZ    7       
## 10 YES             Tlaib     Rashida            D     MI    13      
## # … with 225 more rows, and 25 more variables: date_exact ,
## #   date_approx_month , date_comb , date_month ,
## #   date_year , margin_flag_2018 , flip_2018 , house_dist ,
## #   keyrace_rating , median_income ,
## #   median_income_compared_to_national , median_age ,
## #   median_age_compared_to_national , pct_nonwhite ,
## #   pct_nonwhite_compared_to_national , pct_bachelors ,
## #   pct_bachelors_compared_to_national , rural_pop_above20pct ,
## #   gdp_above_national , clinton_percent , trump_percent ,
## #   obama_percent , romney_percent , p16winningparty ,
## #   p12winningparty 
# 6) Sort the just those who are NO on impeachment based on the percentage of a district that has a 
# bachelor's degree or higher ("pct_bachelors"), from lowest to highest
  
impeach%>%
  filter(for_impeachment == "NO") %>%
   arrange(pct_bachelors)
## # A tibble: 26 x 32
##    for_impeachment last_name first_name middle_name party state district
##                                      
##  1 NO              Cuellar   Henry              D     TX    28      
##  2 NO              Bustos    Cheri              D     IL    17      
##  3 NO              Wilson    Frederica          D     FL    24      
##  4 NO              Gonzalez  Vicente            D     TX    15      
##  5 NO              Sewell    Terri              D     AL    7       
##  6 NO              Lawson    Al                 D     FL    5       
##  7 NO              Johnson   Eddie      Bernice     D     TX    30      
##  8 NO              Horsford  Steven             D     NV    4       
##  9 NO              Torres S… Xochitl            D     NM    2       
## 10 NO              Peterson  Collin     C.          D     MN    7       
## # … with 16 more rows, and 25 more variables: date_exact ,
## #   date_approx_month , date_comb , date_month ,
## #   date_year , margin_flag_2018 , flip_2018 , house_dist ,
## #   keyrace_rating , median_income ,
## #   median_income_compared_to_national , median_age ,
## #   median_age_compared_to_national , pct_nonwhite ,
## #   pct_nonwhite_compared_to_national , pct_bachelors ,
## #   pct_bachelors_compared_to_national , rural_pop_above20pct ,
## #   gdp_above_national , clinton_percent , trump_percent ,
…
